{
  "project_info": {
    "project_number": "158380367281",
    "firebase_url": "https://simple-social-media-e88cc-default-rtdb.firebaseio.com",
    "project_id": "simple-social-media-e88cc",
    "storage_bucket": "simple-social-media-e88cc.appspot.com"
  },
  "client": [
    {
      "client_info": {
        "mobilesdk_app_id": "1:158380367281:android:b212a21ed818574caa7190",
        "android_client_info": {
          "package_name": "com.mtechsolution.simplesocialmedia"
        }
      },
      "oauth_client": [
        {
          "client_id": "158380367281-epg0jo2oocl278m0uec9j06o70t9alp0.apps.googleusercontent.com",
          "client_type": 3
        }
      ],
      "api_key": [
        {
          "current_key": "AIzaSyBcM68hjvw-v8ulhv_xVK_cVhUHn68T_N8"
        }
      ],
      "services": {
        "appinvite_service": {
          "other_platform_oauth_client": [
            {
              "client_id": "158380367281-epg0jo2oocl278m0uec9j06o70t9alp0.apps.googleusercontent.com",
              "client_type": 3
            }
          ]
        }
      }
    }
  ],
  "configuration_version": "1"
}